# Blender MTL File: 'Pi.blend'
# Material Count: 1

newmtl Material.001
Ns 169.000003
Ka 0.516667 0.516667 0.516667
Kd 0.253609 0.138600 0.800000
Ks 0.000000 0.000000 0.000000
Ke 0.0 0.0 0.0
Ni 24.750000
d 1.000000
illum 1
