%YAML 1.1
%TAG !u! tag:unity3d.com,2011:
--- !u!1045 &1
EditorBuildSettings:
  m_ObjectHideFlags: 0
  serializedVersion: 2
  m_Scenes:
  - enabled: 1
    path: Assets/Scenes/Menu.unity
    guid: 7a46b203df9424641b6a098cdefd8a4e
  - enabled: 1
    path: Assets/Scenes/Level01_Preload.unity
    guid: ad5417236cca42e42ad2b465b24f42e3
  - enabled: 1
    path: Assets/Scenes/Level01.unity
    guid: 9bd3f94a39459934da14bfa2f642a925
  - enabled: 1
    path: Assets/Scenes/GameOver.unity
    guid: 08ff96dab8739d744bb3efb4cefedb10
  - enabled: 1
    path: Assets/Scenes/Demo.unity
    guid: 2072387bdd5d7c4429a59273ccbaf6bf
  m_configObjects: {}
